{
  "categories": [
    {
      "id": 1,
      "created": "2021-04-10T08:41:26.804Z",
      "lastUpdated": "2021-04-10T08:41:26.804Z",
      "name": "Web Development"
    },
    {
      "id": 2,
      "created": "2021-04-11T08:41:26.804Z",
      "lastUpdated": "2021-04-11T08:41:26.804Z",
      "name": "Photography"
    },
    {
      "name": "Python",
      "created": "2021-05-09T12:39:03.872Z",
      "lastUpdated": "2021-05-09T12:39:03.872Z",
      "id": 3
    }
  ],
  "courses": [
    {
      "id": 1,
      "created": 1615022290129,
      "lastUpdated": "2021-04-24T08:35:48.749Z",
      "categoryId": 1,
      "title": "The Complete 2021 Web Development Bootcamp",
      "subtitle": "Become a full-stack web developer with just one course. HTML, CSS, Javascript, Node, React, MongoDB and more!",
      "language": "English",
      "price": 129.99,
      "discount": 91,
      "isCertificateIncluded": true,
      "posterImgUrl": "https://img-a.udemycdn.com/course/240x135/1565838_e54e_12.jpg?ZCUgbL8PNrlHsLyGsy6ZHcOXFqn-eXOoZOXCCKiaZeLOuIc7V1jWhE__BW79aqKu_rf7RlFkHRhpP2NDtr2c-0iOzfzHxJwgDvKA00QEVzOARq_Mog4wFqVeiwmEkbSiXw",
      "publishAt": "2021-04-24T08:35:48.045Z"
    },
    {
      "id": 2,
      "created": 1615022290129,
      "lastUpdated": "2021-04-24T08:35:47.070Z",
      "categoryId": 2,
      "title": "Photography Masterclass: A Complete Guide to Photography",
      "subtitle": "The Best Online Professional Photography Class: How to Take Amazing Photos for Beginners & Advanced Photographers",
      "language": "English",
      "price": 139.99,
      "discount": 91,
      "isCertificateIncluded": false,
      "posterImgUrl": "https://img-a.udemycdn.com/course/240x135/1462428_639f_7.jpg?lNpTx5m0ifovyLMaYi9a-8X0nTxoHbhZZbcuTkC2LsxVEk6KRPPk9so8SeGvxzWr_8fXJhMEzlsrw__QISkFQ4LbJn40soI4KqSa1a9uXQtWY0xx5xclbcJnGnzc17gY",
      "publishAt": "2021-04-24T08:35:46.318Z"
    },
    {
      "id": 3,
      "created": 1615022290129,
      "lastUpdated": "2021-04-24T08:35:45.171Z",
      "categoryId": 3,
      "title": "2021 Complete Python Bootcamp From Zero to Hero in Python",
      "subtitle": "The Best Online Professional Photography Class: How to Take Amazing Photos for Beginners & Advanced Photographers",
      "language": "English",
      "price": 129.99,
      "discount": 91,
      "isCertificateIncluded": true,
      "posterImgUrl": "https://img-a.udemycdn.com/course/240x135/567828_67d0.jpg?Ltq6B3AxC3L2BiAe8pIN3ZVA4rHnSj6AeJLvYuWEybIIbkkatF4mud_wq-Ldj6uLyWoXdTKEwFacSgf-aTn7QMHMkfwKmWX0S5jzoNQqOChoowD_4EuqYsZCi5a4",
      "publishAt": "2021-04-24T08:35:44.128Z"
    },
    {
      "created": 1615022290129,
      "lastUpdated": "2021-04-24T08:35:40.288Z",
      "categoryId": 1,
      "title": "The Web Developer Bootcamp 2021",
      "subtitle": "COMPLETELY REDONE - The only course you need to learn web development - HTML, CSS, JS, Node, and More!",
      "language": "English",
      "price": 129.99,
      "discount": 91,
      "isCertificateIncluded": false,
      "posterImgUrl": "https://img-a.udemycdn.com/course/240x135/625204_436a_3.jpg?FRwEEDQ-vhCiYmFFP0viup-JKnVsMSXB2417qVcRfhTQ6J1wAGszP_jQjW8tAnze37aTbHjoGuxzIIpEeLqcmpUwr6ljmR61ez2ls_Ntf8r9HM3W3sAHYGw7H6allZg",
      "id": 4,
      "publishAt": "2021-04-24T08:35:39.526Z"
    },
    {
      "title": "NodeJS - The Complete Guide (MVC, REST APIs, GraphQL, Deno)",
      "subtitle": "Master Node JS & Deno.js, build REST APIs with Node.js, GraphQL APIs, add Authentication, use MongoDB, SQL & much more!",
      "language": "English",
      "price": 149.99,
      "discount": 0,
      "posterImgUrl": "https://img-a.udemycdn.com/course/240x135/1879018_95b6_3.jpg?muKDUTtyREUM7QCirt3ZIvZMFvvQZEcJl0I0psNWtBD2ree0TPSpWF8MWuc4InhlFFwXjMeRBQ8_q7aqWvtuEA4vmdrgDsK8lMsQJ_2xaYFW764KS0yU8s-whwaqyTss",
      "isCertificateIncluded": true,
      "categoryId": 1,
      "created": "2021-04-10T08:41:26.804Z",
      "lastUpdated": "2021-04-24T08:35:37.627Z",
      "id": 5,
      "publishAt": "2021-04-24T08:35:30.550Z"
    },
    {
      "title": "23123123",
      "subtitle": "ewqwqeewqewq",
      "categoryId": "3",
      "language": "English",
      "price": 213,
      "discount": 0,
      "posterImgUrl": null,
      "isCertificateIncluded": false,
      "publishAt": "2021-05-15T10:25:45.826Z",
      "created": "2021-05-15T10:25:55.368Z",
      "lastUpdated": "2021-05-15T10:25:55.368Z",
      "id": 6
    }
  ]
}